%!PS-Adobe-3.0 EPSF-3.0
%%Creator: cairo 1.14.6 (http://cairographics.org)
%%CreationDate: Mon Sep 23 00:44:45 2019
%%Pages: 1
%%DocumentData: Clean7Bit
%%LanguageLevel: 2
%%BoundingBox: 0 -1 134 171
%%EndComments
%%BeginProlog
save
50 dict begin
/q { gsave } bind def
/Q { grestore } bind def
/cm { 6 array astore concat } bind def
/w { setlinewidth } bind def
/J { setlinecap } bind def
/j { setlinejoin } bind def
/M { setmiterlimit } bind def
/d { setdash } bind def
/m { moveto } bind def
/l { lineto } bind def
/c { curveto } bind def
/h { closepath } bind def
/re { exch dup neg 3 1 roll 5 3 roll moveto 0 rlineto
      0 exch rlineto 0 rlineto closepath } bind def
/S { stroke } bind def
/f { fill } bind def
/f* { eofill } bind def
/n { newpath } bind def
/W { clip } bind def
/W* { eoclip } bind def
/BT { } bind def
/ET { } bind def
/pdfmark where { pop globaldict /?pdfmark /exec load put }
    { globaldict begin /?pdfmark /pop load def /pdfmark
    /cleartomark load def end } ifelse
/BDC { mark 3 1 roll /BDC pdfmark } bind def
/EMC { mark /EMC pdfmark } bind def
/cairo_store_point { /cairo_point_y exch def /cairo_point_x exch def } def
/Tj { show currentpoint cairo_store_point } bind def
/TJ {
  {
    dup
    type /stringtype eq
    { show } { -0.001 mul 0 cairo_font_matrix dtransform rmoveto } ifelse
  } forall
  currentpoint cairo_store_point
} bind def
/cairo_selectfont { cairo_font_matrix aload pop pop pop 0 0 6 array astore
    cairo_font exch selectfont cairo_point_x cairo_point_y moveto } bind def
/Tf { pop /cairo_font exch def /cairo_font_matrix where
      { pop cairo_selectfont } if } bind def
/Td { matrix translate cairo_font_matrix matrix concatmatrix dup
      /cairo_font_matrix exch def dup 4 get exch 5 get cairo_store_point
      /cairo_font where { pop cairo_selectfont } if } bind def
/Tm { 2 copy 8 2 roll 6 array astore /cairo_font_matrix exch def
      cairo_store_point /cairo_font where { pop cairo_selectfont } if } bind def
/g { setgray } bind def
/rg { setrgbcolor } bind def
/d1 { setcachedevice } bind def
%%EndProlog
%%BeginSetup
%%EndSetup
%%Page: 1 1
%%BeginPageSetup
%%PageBoundingBox: 0 -1 134 171
%%EndPageSetup
q 0 -1 134 172 rectclip q
1 g
0 0 133.571182 170.880035 rectfill
1 g
3.367 101.911 m 130.203 101.911 l 131.977 101.911 133.402 100.486 133.402
 98.712 c 133.402 3.368 l 133.402 1.595 131.977 0.169 130.203 0.169 c 3.367
 0.169 l 1.594 0.169 0.168 1.595 0.168 3.368 c 0.168 98.712 l 0.168 100.486
 1.594 101.911 3.367 101.911 c h
3.367 101.911 m f
0.257761 w
0 J
0 j
[] 0.0 d
4 M q 1 0 0 -1 0 170.880035 cm
3.328 0.129 m 130.242 0.129 l 132.016 0.129 133.441 1.555 133.441 3.328
 c 133.441 56.75 l 133.441 58.523 132.016 59.949 130.242 59.949 c 3.328 
59.949 l 1.555 59.949 0.129 58.523 0.129 56.75 c 0.129 3.328 l 0.129 1.555
 1.555 0.129 3.328 0.129 c h
3.328 0.129 m S Q
Q Q
showpage
%%Trailer
end restore
%%EOF
