%!PS-Adobe-3.0 EPSF-3.0
%%BoundingBox: 0 0 200 200
1 1 1 setrgbcolor
0 200 moveto
0 -200 rlineto 200 0 rlineto 0 200 rlineto closepath
fill
0 0 0 setrgbcolor
17 183 moveto
0 -5 rlineto 5 0 rlineto 0 5 rlineto closepath
fill
22 183 moveto
0 -5 rlineto 5 0 rlineto 0 5 rlineto closepath
fill
27 183 moveto
0 -5 rlineto 5 0 rlineto 0 5 rlineto closepath
fill
32 183 moveto
0 -5 rlineto 5 0 rlineto 0 5 rlineto closepath
fill
37 183 moveto
0 -5 rlineto 5 0 rlineto 0 5 rlineto closepath
fill
42 183 moveto
0 -5 rlineto 5 0 rlineto 0 5 rlineto closepath
fill
47 183 moveto
0 -5 rlineto 5 0 rlineto 0 5 rlineto closepath
fill
67 183 moveto
0 -5 rlineto 5 0 rlineto 0 5 rlineto closepath
fill
87 183 moveto
0 -5 rlineto 5 0 rlineto 0 5 rlineto closepath
fill
107 183 moveto
0 -5 rlineto 5 0 rlineto 0 5 rlineto closepath
fill
112 183 moveto
0 -5 rlineto 5 0 rlineto 0 5 rlineto closepath
fill
122 183 moveto
0 -5 rlineto 5 0 rlineto 0 5 rlineto closepath
fill
127 183 moveto
0 -5 rlineto 5 0 rlineto 0 5 rlineto closepath
fill
132 183 moveto
0 -5 rlineto 5 0 rlineto 0 5 rlineto closepath
fill
137 183 moveto
0 -5 rlineto 5 0 rlineto 0 5 rlineto closepath
fill
147 183 moveto
0 -5 rlineto 5 0 rlineto 0 5 rlineto closepath
fill
152 183 moveto
0 -5 rlineto 5 0 rlineto 0 5 rlineto closepath
fill
157 183 moveto
0 -5 rlineto 5 0 rlineto 0 5 rlineto closepath
fill
162 183 moveto
0 -5 rlineto 5 0 rlineto 0 5 rlineto closepath
fill
167 183 moveto
0 -5 rlineto 5 0 rlineto 0 5 rlineto closepath
fill
172 183 moveto
0 -5 rlineto 5 0 rlineto 0 5 rlineto closepath
fill
177 183 moveto
0 -5 rlineto 5 0 rlineto 0 5 rlineto closepath
fill
17 178 moveto
0 -5 rlineto 5 0 rlineto 0 5 rlineto closepath
fill
47 178 moveto
0 -5 rlineto 5 0 rlineto 0 5 rlineto closepath
fill
62 178 moveto
0 -5 rlineto 5 0 rlineto 0 5 rlineto closepath
fill
82 178 moveto
0 -5 rlineto 5 0 rlineto 0 5 rlineto closepath
fill
102 178 moveto
0 -5 rlineto 5 0 rlineto 0 5 rlineto closepath
fill
112 178 moveto
0 -5 rlineto 5 0 rlineto 0 5 rlineto closepath
fill
127 178 moveto
0 -5 rlineto 5 0 rlineto 0 5 rlineto closepath
fill
132 178 moveto
0 -5 rlineto 5 0 rlineto 0 5 rlineto closepath
fill
147 178 moveto
0 -5 rlineto 5 0 rlineto 0 5 rlineto closepath
fill
177 178 moveto
0 -5 rlineto 5 0 rlineto 0 5 rlineto closepath
fill
17 173 moveto
0 -5 rlineto 5 0 rlineto 0 5 rlineto closepath
fill
27 173 moveto
0 -5 rlineto 5 0 rlineto 0 5 rlineto closepath
fill
32 173 moveto
0 -5 rlineto 5 0 rlineto 0 5 rlineto closepath
fill
37 173 moveto
0 -5 rlineto 5 0 rlineto 0 5 rlineto closepath
fill
47 173 moveto
0 -5 rlineto 5 0 rlineto 0 5 rlineto closepath
fill
57 173 moveto
0 -5 rlineto 5 0 rlineto 0 5 rlineto closepath
fill
72 173 moveto
0 -5 rlineto 5 0 rlineto 0 5 rlineto closepath
fill
92 173 moveto
0 -5 rlineto 5 0 rlineto 0 5 rlineto closepath
fill
127 173 moveto
0 -5 rlineto 5 0 rlineto 0 5 rlineto closepath
fill
132 173 moveto
0 -5 rlineto 5 0 rlineto 0 5 rlineto closepath
fill
147 173 moveto
0 -5 rlineto 5 0 rlineto 0 5 rlineto closepath
fill
157 173 moveto
0 -5 rlineto 5 0 rlineto 0 5 rlineto closepath
fill
162 173 moveto
0 -5 rlineto 5 0 rlineto 0 5 rlineto closepath
fill
167 173 moveto
0 -5 rlineto 5 0 rlineto 0 5 rlineto closepath
fill
177 173 moveto
0 -5 rlineto 5 0 rlineto 0 5 rlineto closepath
fill
17 168 moveto
0 -5 rlineto 5 0 rlineto 0 5 rlineto closepath
fill
27 168 moveto
0 -5 rlineto 5 0 rlineto 0 5 rlineto closepath
fill
32 168 moveto
0 -5 rlineto 5 0 rlineto 0 5 rlineto closepath
fill
37 168 moveto
0 -5 rlineto 5 0 rlineto 0 5 rlineto closepath
fill
47 168 moveto
0 -5 rlineto 5 0 rlineto 0 5 rlineto closepath
fill
62 168 moveto
0 -5 rlineto 5 0 rlineto 0 5 rlineto closepath
fill
77 168 moveto
0 -5 rlineto 5 0 rlineto 0 5 rlineto closepath
fill
82 168 moveto
0 -5 rlineto 5 0 rlineto 0 5 rlineto closepath
fill
97 168 moveto
0 -5 rlineto 5 0 rlineto 0 5 rlineto closepath
fill
107 168 moveto
0 -5 rlineto 5 0 rlineto 0 5 rlineto closepath
fill
127 168 moveto
0 -5 rlineto 5 0 rlineto 0 5 rlineto closepath
fill
132 168 moveto
0 -5 rlineto 5 0 rlineto 0 5 rlineto closepath
fill
137 168 moveto
0 -5 rlineto 5 0 rlineto 0 5 rlineto closepath
fill
147 168 moveto
0 -5 rlineto 5 0 rlineto 0 5 rlineto closepath
fill
157 168 moveto
0 -5 rlineto 5 0 rlineto 0 5 rlineto closepath
fill
162 168 moveto
0 -5 rlineto 5 0 rlineto 0 5 rlineto closepath
fill
167 168 moveto
0 -5 rlineto 5 0 rlineto 0 5 rlineto closepath
fill
177 168 moveto
0 -5 rlineto 5 0 rlineto 0 5 rlineto closepath
fill
17 163 moveto
0 -5 rlineto 5 0 rlineto 0 5 rlineto closepath
fill
27 163 moveto
0 -5 rlineto 5 0 rlineto 0 5 rlineto closepath
fill
32 163 moveto
0 -5 rlineto 5 0 rlineto 0 5 rlineto closepath
fill
37 163 moveto
0 -5 rlineto 5 0 rlineto 0 5 rlineto closepath
fill
47 163 moveto
0 -5 rlineto 5 0 rlineto 0 5 rlineto closepath
fill
62 163 moveto
0 -5 rlineto 5 0 rlineto 0 5 rlineto closepath
fill
77 163 moveto
0 -5 rlineto 5 0 rlineto 0 5 rlineto closepath
fill
82 163 moveto
0 -5 rlineto 5 0 rlineto 0 5 rlineto closepath
fill
97 163 moveto
0 -5 rlineto 5 0 rlineto 0 5 rlineto closepath
fill
112 163 moveto
0 -5 rlineto 5 0 rlineto 0 5 rlineto closepath
fill
122 163 moveto
0 -5 rlineto 5 0 rlineto 0 5 rlineto closepath
fill
127 163 moveto
0 -5 rlineto 5 0 rlineto 0 5 rlineto closepath
fill
132 163 moveto
0 -5 rlineto 5 0 rlineto 0 5 rlineto closepath
fill
147 163 moveto
0 -5 rlineto 5 0 rlineto 0 5 rlineto closepath
fill
157 163 moveto
0 -5 rlineto 5 0 rlineto 0 5 rlineto closepath
fill
162 163 moveto
0 -5 rlineto 5 0 rlineto 0 5 rlineto closepath
fill
167 163 moveto
0 -5 rlineto 5 0 rlineto 0 5 rlineto closepath
fill
177 163 moveto
0 -5 rlineto 5 0 rlineto 0 5 rlineto closepath
fill
17 158 moveto
0 -5 rlineto 5 0 rlineto 0 5 rlineto closepath
fill
47 158 moveto
0 -5 rlineto 5 0 rlineto 0 5 rlineto closepath
fill
67 158 moveto
0 -5 rlineto 5 0 rlineto 0 5 rlineto closepath
fill
72 158 moveto
0 -5 rlineto 5 0 rlineto 0 5 rlineto closepath
fill
77 158 moveto
0 -5 rlineto 5 0 rlineto 0 5 rlineto closepath
fill
87 158 moveto
0 -5 rlineto 5 0 rlineto 0 5 rlineto closepath
fill
92 158 moveto
0 -5 rlineto 5 0 rlineto 0 5 rlineto closepath
fill
97 158 moveto
0 -5 rlineto 5 0 rlineto 0 5 rlineto closepath
fill
102 158 moveto
0 -5 rlineto 5 0 rlineto 0 5 rlineto closepath
fill
112 158 moveto
0 -5 rlineto 5 0 rlineto 0 5 rlineto closepath
fill
122 158 moveto
0 -5 rlineto 5 0 rlineto 0 5 rlineto closepath
fill
127 158 moveto
0 -5 rlineto 5 0 rlineto 0 5 rlineto closepath
fill
132 158 moveto
0 -5 rlineto 5 0 rlineto 0 5 rlineto closepath
fill
137 158 moveto
0 -5 rlineto 5 0 rlineto 0 5 rlineto closepath
fill
147 158 moveto
0 -5 rlineto 5 0 rlineto 0 5 rlineto closepath
fill
177 158 moveto
0 -5 rlineto 5 0 rlineto 0 5 rlineto closepath
fill
17 153 moveto
0 -5 rlineto 5 0 rlineto 0 5 rlineto closepath
fill
22 153 moveto
0 -5 rlineto 5 0 rlineto 0 5 rlineto closepath
fill
27 153 moveto
0 -5 rlineto 5 0 rlineto 0 5 rlineto closepath
fill
32 153 moveto
0 -5 rlineto 5 0 rlineto 0 5 rlineto closepath
fill
37 153 moveto
0 -5 rlineto 5 0 rlineto 0 5 rlineto closepath
fill
42 153 moveto
0 -5 rlineto 5 0 rlineto 0 5 rlineto closepath
fill
47 153 moveto
0 -5 rlineto 5 0 rlineto 0 5 rlineto closepath
fill
57 153 moveto
0 -5 rlineto 5 0 rlineto 0 5 rlineto closepath
fill
67 153 moveto
0 -5 rlineto 5 0 rlineto 0 5 rlineto closepath
fill
77 153 moveto
0 -5 rlineto 5 0 rlineto 0 5 rlineto closepath
fill
87 153 moveto
0 -5 rlineto 5 0 rlineto 0 5 rlineto closepath
fill
97 153 moveto
0 -5 rlineto 5 0 rlineto 0 5 rlineto closepath
fill
107 153 moveto
0 -5 rlineto 5 0 rlineto 0 5 rlineto closepath
fill
117 153 moveto
0 -5 rlineto 5 0 rlineto 0 5 rlineto closepath
fill
127 153 moveto
0 -5 rlineto 5 0 rlineto 0 5 rlineto closepath
fill
137 153 moveto
0 -5 rlineto 5 0 rlineto 0 5 rlineto closepath
fill
147 153 moveto
0 -5 rlineto 5 0 rlineto 0 5 rlineto closepath
fill
152 153 moveto
0 -5 rlineto 5 0 rlineto 0 5 rlineto closepath
fill
157 153 moveto
0 -5 rlineto 5 0 rlineto 0 5 rlineto closepath
fill
162 153 moveto
0 -5 rlineto 5 0 rlineto 0 5 rlineto closepath
fill
167 153 moveto
0 -5 rlineto 5 0 rlineto 0 5 rlineto closepath
fill
172 153 moveto
0 -5 rlineto 5 0 rlineto 0 5 rlineto closepath
fill
177 153 moveto
0 -5 rlineto 5 0 rlineto 0 5 rlineto closepath
fill
57 148 moveto
0 -5 rlineto 5 0 rlineto 0 5 rlineto closepath
fill
72 148 moveto
0 -5 rlineto 5 0 rlineto 0 5 rlineto closepath
fill
92 148 moveto
0 -5 rlineto 5 0 rlineto 0 5 rlineto closepath
fill
102 148 moveto
0 -5 rlineto 5 0 rlineto 0 5 rlineto closepath
fill
117 148 moveto
0 -5 rlineto 5 0 rlineto 0 5 rlineto closepath
fill
122 148 moveto
0 -5 rlineto 5 0 rlineto 0 5 rlineto closepath
fill
127 148 moveto
0 -5 rlineto 5 0 rlineto 0 5 rlineto closepath
fill
132 148 moveto
0 -5 rlineto 5 0 rlineto 0 5 rlineto closepath
fill
17 143 moveto
0 -5 rlineto 5 0 rlineto 0 5 rlineto closepath
fill
22 143 moveto
0 -5 rlineto 5 0 rlineto 0 5 rlineto closepath
fill
27 143 moveto
0 -5 rlineto 5 0 rlineto 0 5 rlineto closepath
fill
37 143 moveto
0 -5 rlineto 5 0 rlineto 0 5 rlineto closepath
fill
42 143 moveto
0 -5 rlineto 5 0 rlineto 0 5 rlineto closepath
fill
47 143 moveto
0 -5 rlineto 5 0 rlineto 0 5 rlineto closepath
fill
52 143 moveto
0 -5 rlineto 5 0 rlineto 0 5 rlineto closepath
fill
57 143 moveto
0 -5 rlineto 5 0 rlineto 0 5 rlineto closepath
fill
77 143 moveto
0 -5 rlineto 5 0 rlineto 0 5 rlineto closepath
fill
97 143 moveto
0 -5 rlineto 5 0 rlineto 0 5 rlineto closepath
fill
102 143 moveto
0 -5 rlineto 5 0 rlineto 0 5 rlineto closepath
fill
117 143 moveto
0 -5 rlineto 5 0 rlineto 0 5 rlineto closepath
fill
122 143 moveto
0 -5 rlineto 5 0 rlineto 0 5 rlineto closepath
fill
137 143 moveto
0 -5 rlineto 5 0 rlineto 0 5 rlineto closepath
fill
142 143 moveto
0 -5 rlineto 5 0 rlineto 0 5 rlineto closepath
fill
147 143 moveto
0 -5 rlineto 5 0 rlineto 0 5 rlineto closepath
fill
167 143 moveto
0 -5 rlineto 5 0 rlineto 0 5 rlineto closepath
fill
42 138 moveto
0 -5 rlineto 5 0 rlineto 0 5 rlineto closepath
fill
62 138 moveto
0 -5 rlineto 5 0 rlineto 0 5 rlineto closepath
fill
72 138 moveto
0 -5 rlineto 5 0 rlineto 0 5 rlineto closepath
fill
77 138 moveto
0 -5 rlineto 5 0 rlineto 0 5 rlineto closepath
fill
82 138 moveto
0 -5 rlineto 5 0 rlineto 0 5 rlineto closepath
fill
92 138 moveto
0 -5 rlineto 5 0 rlineto 0 5 rlineto closepath
fill
97 138 moveto
0 -5 rlineto 5 0 rlineto 0 5 rlineto closepath
fill
102 138 moveto
0 -5 rlineto 5 0 rlineto 0 5 rlineto closepath
fill
107 138 moveto
0 -5 rlineto 5 0 rlineto 0 5 rlineto closepath
fill
117 138 moveto
0 -5 rlineto 5 0 rlineto 0 5 rlineto closepath
fill
127 138 moveto
0 -5 rlineto 5 0 rlineto 0 5 rlineto closepath
fill
137 138 moveto
0 -5 rlineto 5 0 rlineto 0 5 rlineto closepath
fill
147 138 moveto
0 -5 rlineto 5 0 rlineto 0 5 rlineto closepath
fill
162 138 moveto
0 -5 rlineto 5 0 rlineto 0 5 rlineto closepath
fill
177 138 moveto
0 -5 rlineto 5 0 rlineto 0 5 rlineto closepath
fill
17 133 moveto
0 -5 rlineto 5 0 rlineto 0 5 rlineto closepath
fill
22 133 moveto
0 -5 rlineto 5 0 rlineto 0 5 rlineto closepath
fill
42 133 moveto
0 -5 rlineto 5 0 rlineto 0 5 rlineto closepath
fill
47 133 moveto
0 -5 rlineto 5 0 rlineto 0 5 rlineto closepath
fill
67 133 moveto
0 -5 rlineto 5 0 rlineto 0 5 rlineto closepath
fill
72 133 moveto
0 -5 rlineto 5 0 rlineto 0 5 rlineto closepath
fill
77 133 moveto
0 -5 rlineto 5 0 rlineto 0 5 rlineto closepath
fill
87 133 moveto
0 -5 rlineto 5 0 rlineto 0 5 rlineto closepath
fill
92 133 moveto
0 -5 rlineto 5 0 rlineto 0 5 rlineto closepath
fill
97 133 moveto
0 -5 rlineto 5 0 rlineto 0 5 rlineto closepath
fill
107 133 moveto
0 -5 rlineto 5 0 rlineto 0 5 rlineto closepath
fill
127 133 moveto
0 -5 rlineto 5 0 rlineto 0 5 rlineto closepath
fill
137 133 moveto
0 -5 rlineto 5 0 rlineto 0 5 rlineto closepath
fill
147 133 moveto
0 -5 rlineto 5 0 rlineto 0 5 rlineto closepath
fill
152 133 moveto
0 -5 rlineto 5 0 rlineto 0 5 rlineto closepath
fill
157 133 moveto
0 -5 rlineto 5 0 rlineto 0 5 rlineto closepath
fill
162 133 moveto
0 -5 rlineto 5 0 rlineto 0 5 rlineto closepath
fill
172 133 moveto
0 -5 rlineto 5 0 rlineto 0 5 rlineto closepath
fill
177 133 moveto
0 -5 rlineto 5 0 rlineto 0 5 rlineto closepath
fill
17 128 moveto
0 -5 rlineto 5 0 rlineto 0 5 rlineto closepath
fill
22 128 moveto
0 -5 rlineto 5 0 rlineto 0 5 rlineto closepath
fill
42 128 moveto
0 -5 rlineto 5 0 rlineto 0 5 rlineto closepath
fill
52 128 moveto
0 -5 rlineto 5 0 rlineto 0 5 rlineto closepath
fill
62 128 moveto
0 -5 rlineto 5 0 rlineto 0 5 rlineto closepath
fill
67 128 moveto
0 -5 rlineto 5 0 rlineto 0 5 rlineto closepath
fill
77 128 moveto
0 -5 rlineto 5 0 rlineto 0 5 rlineto closepath
fill
82 128 moveto
0 -5 rlineto 5 0 rlineto 0 5 rlineto closepath
fill
87 128 moveto
0 -5 rlineto 5 0 rlineto 0 5 rlineto closepath
fill
97 128 moveto
0 -5 rlineto 5 0 rlineto 0 5 rlineto closepath
fill
102 128 moveto
0 -5 rlineto 5 0 rlineto 0 5 rlineto closepath
fill
117 128 moveto
0 -5 rlineto 5 0 rlineto 0 5 rlineto closepath
fill
122 128 moveto
0 -5 rlineto 5 0 rlineto 0 5 rlineto closepath
fill
132 128 moveto
0 -5 rlineto 5 0 rlineto 0 5 rlineto closepath
fill
137 128 moveto
0 -5 rlineto 5 0 rlineto 0 5 rlineto closepath
fill
142 128 moveto
0 -5 rlineto 5 0 rlineto 0 5 rlineto closepath
fill
157 128 moveto
0 -5 rlineto 5 0 rlineto 0 5 rlineto closepath
fill
162 128 moveto
0 -5 rlineto 5 0 rlineto 0 5 rlineto closepath
fill
172 128 moveto
0 -5 rlineto 5 0 rlineto 0 5 rlineto closepath
fill
27 123 moveto
0 -5 rlineto 5 0 rlineto 0 5 rlineto closepath
fill
32 123 moveto
0 -5 rlineto 5 0 rlineto 0 5 rlineto closepath
fill
37 123 moveto
0 -5 rlineto 5 0 rlineto 0 5 rlineto closepath
fill
47 123 moveto
0 -5 rlineto 5 0 rlineto 0 5 rlineto closepath
fill
57 123 moveto
0 -5 rlineto 5 0 rlineto 0 5 rlineto closepath
fill
67 123 moveto
0 -5 rlineto 5 0 rlineto 0 5 rlineto closepath
fill
72 123 moveto
0 -5 rlineto 5 0 rlineto 0 5 rlineto closepath
fill
87 123 moveto
0 -5 rlineto 5 0 rlineto 0 5 rlineto closepath
fill
92 123 moveto
0 -5 rlineto 5 0 rlineto 0 5 rlineto closepath
fill
97 123 moveto
0 -5 rlineto 5 0 rlineto 0 5 rlineto closepath
fill
102 123 moveto
0 -5 rlineto 5 0 rlineto 0 5 rlineto closepath
fill
112 123 moveto
0 -5 rlineto 5 0 rlineto 0 5 rlineto closepath
fill
117 123 moveto
0 -5 rlineto 5 0 rlineto 0 5 rlineto closepath
fill
122 123 moveto
0 -5 rlineto 5 0 rlineto 0 5 rlineto closepath
fill
127 123 moveto
0 -5 rlineto 5 0 rlineto 0 5 rlineto closepath
fill
142 123 moveto
0 -5 rlineto 5 0 rlineto 0 5 rlineto closepath
fill
147 123 moveto
0 -5 rlineto 5 0 rlineto 0 5 rlineto closepath
fill
162 123 moveto
0 -5 rlineto 5 0 rlineto 0 5 rlineto closepath
fill
177 123 moveto
0 -5 rlineto 5 0 rlineto 0 5 rlineto closepath
fill
22 118 moveto
0 -5 rlineto 5 0 rlineto 0 5 rlineto closepath
fill
27 118 moveto
0 -5 rlineto 5 0 rlineto 0 5 rlineto closepath
fill
42 118 moveto
0 -5 rlineto 5 0 rlineto 0 5 rlineto closepath
fill
52 118 moveto
0 -5 rlineto 5 0 rlineto 0 5 rlineto closepath
fill
67 118 moveto
0 -5 rlineto 5 0 rlineto 0 5 rlineto closepath
fill
72 118 moveto
0 -5 rlineto 5 0 rlineto 0 5 rlineto closepath
fill
87 118 moveto
0 -5 rlineto 5 0 rlineto 0 5 rlineto closepath
fill
92 118 moveto
0 -5 rlineto 5 0 rlineto 0 5 rlineto closepath
fill
107 118 moveto
0 -5 rlineto 5 0 rlineto 0 5 rlineto closepath
fill
137 118 moveto
0 -5 rlineto 5 0 rlineto 0 5 rlineto closepath
fill
147 118 moveto
0 -5 rlineto 5 0 rlineto 0 5 rlineto closepath
fill
162 118 moveto
0 -5 rlineto 5 0 rlineto 0 5 rlineto closepath
fill
167 118 moveto
0 -5 rlineto 5 0 rlineto 0 5 rlineto closepath
fill
177 118 moveto
0 -5 rlineto 5 0 rlineto 0 5 rlineto closepath
fill
22 113 moveto
0 -5 rlineto 5 0 rlineto 0 5 rlineto closepath
fill
27 113 moveto
0 -5 rlineto 5 0 rlineto 0 5 rlineto closepath
fill
37 113 moveto
0 -5 rlineto 5 0 rlineto 0 5 rlineto closepath
fill
47 113 moveto
0 -5 rlineto 5 0 rlineto 0 5 rlineto closepath
fill
52 113 moveto
0 -5 rlineto 5 0 rlineto 0 5 rlineto closepath
fill
57 113 moveto
0 -5 rlineto 5 0 rlineto 0 5 rlineto closepath
fill
82 113 moveto
0 -5 rlineto 5 0 rlineto 0 5 rlineto closepath
fill
97 113 moveto
0 -5 rlineto 5 0 rlineto 0 5 rlineto closepath
fill
107 113 moveto
0 -5 rlineto 5 0 rlineto 0 5 rlineto closepath
fill
122 113 moveto
0 -5 rlineto 5 0 rlineto 0 5 rlineto closepath
fill
147 113 moveto
0 -5 rlineto 5 0 rlineto 0 5 rlineto closepath
fill
152 113 moveto
0 -5 rlineto 5 0 rlineto 0 5 rlineto closepath
fill
157 113 moveto
0 -5 rlineto 5 0 rlineto 0 5 rlineto closepath
fill
172 113 moveto
0 -5 rlineto 5 0 rlineto 0 5 rlineto closepath
fill
177 113 moveto
0 -5 rlineto 5 0 rlineto 0 5 rlineto closepath
fill
42 108 moveto
0 -5 rlineto 5 0 rlineto 0 5 rlineto closepath
fill
52 108 moveto
0 -5 rlineto 5 0 rlineto 0 5 rlineto closepath
fill
62 108 moveto
0 -5 rlineto 5 0 rlineto 0 5 rlineto closepath
fill
67 108 moveto
0 -5 rlineto 5 0 rlineto 0 5 rlineto closepath
fill
72 108 moveto
0 -5 rlineto 5 0 rlineto 0 5 rlineto closepath
fill
92 108 moveto
0 -5 rlineto 5 0 rlineto 0 5 rlineto closepath
fill
97 108 moveto
0 -5 rlineto 5 0 rlineto 0 5 rlineto closepath
fill
102 108 moveto
0 -5 rlineto 5 0 rlineto 0 5 rlineto closepath
fill
107 108 moveto
0 -5 rlineto 5 0 rlineto 0 5 rlineto closepath
fill
117 108 moveto
0 -5 rlineto 5 0 rlineto 0 5 rlineto closepath
fill
122 108 moveto
0 -5 rlineto 5 0 rlineto 0 5 rlineto closepath
fill
127 108 moveto
0 -5 rlineto 5 0 rlineto 0 5 rlineto closepath
fill
147 108 moveto
0 -5 rlineto 5 0 rlineto 0 5 rlineto closepath
fill
152 108 moveto
0 -5 rlineto 5 0 rlineto 0 5 rlineto closepath
fill
162 108 moveto
0 -5 rlineto 5 0 rlineto 0 5 rlineto closepath
fill
172 108 moveto
0 -5 rlineto 5 0 rlineto 0 5 rlineto closepath
fill
17 103 moveto
0 -5 rlineto 5 0 rlineto 0 5 rlineto closepath
fill
22 103 moveto
0 -5 rlineto 5 0 rlineto 0 5 rlineto closepath
fill
42 103 moveto
0 -5 rlineto 5 0 rlineto 0 5 rlineto closepath
fill
47 103 moveto
0 -5 rlineto 5 0 rlineto 0 5 rlineto closepath
fill
52 103 moveto
0 -5 rlineto 5 0 rlineto 0 5 rlineto closepath
fill
62 103 moveto
0 -5 rlineto 5 0 rlineto 0 5 rlineto closepath
fill
67 103 moveto
0 -5 rlineto 5 0 rlineto 0 5 rlineto closepath
fill
77 103 moveto
0 -5 rlineto 5 0 rlineto 0 5 rlineto closepath
fill
92 103 moveto
0 -5 rlineto 5 0 rlineto 0 5 rlineto closepath
fill
97 103 moveto
0 -5 rlineto 5 0 rlineto 0 5 rlineto closepath
fill
102 103 moveto
0 -5 rlineto 5 0 rlineto 0 5 rlineto closepath
fill
112 103 moveto
0 -5 rlineto 5 0 rlineto 0 5 rlineto closepath
fill
117 103 moveto
0 -5 rlineto 5 0 rlineto 0 5 rlineto closepath
fill
122 103 moveto
0 -5 rlineto 5 0 rlineto 0 5 rlineto closepath
fill
147 103 moveto
0 -5 rlineto 5 0 rlineto 0 5 rlineto closepath
fill
172 103 moveto
0 -5 rlineto 5 0 rlineto 0 5 rlineto closepath
fill
177 103 moveto
0 -5 rlineto 5 0 rlineto 0 5 rlineto closepath
fill
17 98 moveto
0 -5 rlineto 5 0 rlineto 0 5 rlineto closepath
fill
22 98 moveto
0 -5 rlineto 5 0 rlineto 0 5 rlineto closepath
fill
27 98 moveto
0 -5 rlineto 5 0 rlineto 0 5 rlineto closepath
fill
32 98 moveto
0 -5 rlineto 5 0 rlineto 0 5 rlineto closepath
fill
37 98 moveto
0 -5 rlineto 5 0 rlineto 0 5 rlineto closepath
fill
42 98 moveto
0 -5 rlineto 5 0 rlineto 0 5 rlineto closepath
fill
57 98 moveto
0 -5 rlineto 5 0 rlineto 0 5 rlineto closepath
fill
62 98 moveto
0 -5 rlineto 5 0 rlineto 0 5 rlineto closepath
fill
67 98 moveto
0 -5 rlineto 5 0 rlineto 0 5 rlineto closepath
fill
72 98 moveto
0 -5 rlineto 5 0 rlineto 0 5 rlineto closepath
fill
77 98 moveto
0 -5 rlineto 5 0 rlineto 0 5 rlineto closepath
fill
82 98 moveto
0 -5 rlineto 5 0 rlineto 0 5 rlineto closepath
fill
97 98 moveto
0 -5 rlineto 5 0 rlineto 0 5 rlineto closepath
fill
102 98 moveto
0 -5 rlineto 5 0 rlineto 0 5 rlineto closepath
fill
117 98 moveto
0 -5 rlineto 5 0 rlineto 0 5 rlineto closepath
fill
127 98 moveto
0 -5 rlineto 5 0 rlineto 0 5 rlineto closepath
fill
137 98 moveto
0 -5 rlineto 5 0 rlineto 0 5 rlineto closepath
fill
142 98 moveto
0 -5 rlineto 5 0 rlineto 0 5 rlineto closepath
fill
147 98 moveto
0 -5 rlineto 5 0 rlineto 0 5 rlineto closepath
fill
167 98 moveto
0 -5 rlineto 5 0 rlineto 0 5 rlineto closepath
fill
177 98 moveto
0 -5 rlineto 5 0 rlineto 0 5 rlineto closepath
fill
17 93 moveto
0 -5 rlineto 5 0 rlineto 0 5 rlineto closepath
fill
27 93 moveto
0 -5 rlineto 5 0 rlineto 0 5 rlineto closepath
fill
37 93 moveto
0 -5 rlineto 5 0 rlineto 0 5 rlineto closepath
fill
47 93 moveto
0 -5 rlineto 5 0 rlineto 0 5 rlineto closepath
fill
57 93 moveto
0 -5 rlineto 5 0 rlineto 0 5 rlineto closepath
fill
67 93 moveto
0 -5 rlineto 5 0 rlineto 0 5 rlineto closepath
fill
72 93 moveto
0 -5 rlineto 5 0 rlineto 0 5 rlineto closepath
fill
77 93 moveto
0 -5 rlineto 5 0 rlineto 0 5 rlineto closepath
fill
87 93 moveto
0 -5 rlineto 5 0 rlineto 0 5 rlineto closepath
fill
102 93 moveto
0 -5 rlineto 5 0 rlineto 0 5 rlineto closepath
fill
107 93 moveto
0 -5 rlineto 5 0 rlineto 0 5 rlineto closepath
fill
117 93 moveto
0 -5 rlineto 5 0 rlineto 0 5 rlineto closepath
fill
122 93 moveto
0 -5 rlineto 5 0 rlineto 0 5 rlineto closepath
fill
142 93 moveto
0 -5 rlineto 5 0 rlineto 0 5 rlineto closepath
fill
157 93 moveto
0 -5 rlineto 5 0 rlineto 0 5 rlineto closepath
fill
162 93 moveto
0 -5 rlineto 5 0 rlineto 0 5 rlineto closepath
fill
172 93 moveto
0 -5 rlineto 5 0 rlineto 0 5 rlineto closepath
fill
177 93 moveto
0 -5 rlineto 5 0 rlineto 0 5 rlineto closepath
fill
17 88 moveto
0 -5 rlineto 5 0 rlineto 0 5 rlineto closepath
fill
27 88 moveto
0 -5 rlineto 5 0 rlineto 0 5 rlineto closepath
fill
37 88 moveto
0 -5 rlineto 5 0 rlineto 0 5 rlineto closepath
fill
52 88 moveto
0 -5 rlineto 5 0 rlineto 0 5 rlineto closepath
fill
77 88 moveto
0 -5 rlineto 5 0 rlineto 0 5 rlineto closepath
fill
82 88 moveto
0 -5 rlineto 5 0 rlineto 0 5 rlineto closepath
fill
87 88 moveto
0 -5 rlineto 5 0 rlineto 0 5 rlineto closepath
fill
92 88 moveto
0 -5 rlineto 5 0 rlineto 0 5 rlineto closepath
fill
97 88 moveto
0 -5 rlineto 5 0 rlineto 0 5 rlineto closepath
fill
102 88 moveto
0 -5 rlineto 5 0 rlineto 0 5 rlineto closepath
fill
112 88 moveto
0 -5 rlineto 5 0 rlineto 0 5 rlineto closepath
fill
122 88 moveto
0 -5 rlineto 5 0 rlineto 0 5 rlineto closepath
fill
132 88 moveto
0 -5 rlineto 5 0 rlineto 0 5 rlineto closepath
fill
137 88 moveto
0 -5 rlineto 5 0 rlineto 0 5 rlineto closepath
fill
142 88 moveto
0 -5 rlineto 5 0 rlineto 0 5 rlineto closepath
fill
147 88 moveto
0 -5 rlineto 5 0 rlineto 0 5 rlineto closepath
fill
162 88 moveto
0 -5 rlineto 5 0 rlineto 0 5 rlineto closepath
fill
172 88 moveto
0 -5 rlineto 5 0 rlineto 0 5 rlineto closepath
fill
17 83 moveto
0 -5 rlineto 5 0 rlineto 0 5 rlineto closepath
fill
22 83 moveto
0 -5 rlineto 5 0 rlineto 0 5 rlineto closepath
fill
37 83 moveto
0 -5 rlineto 5 0 rlineto 0 5 rlineto closepath
fill
47 83 moveto
0 -5 rlineto 5 0 rlineto 0 5 rlineto closepath
fill
72 83 moveto
0 -5 rlineto 5 0 rlineto 0 5 rlineto closepath
fill
87 83 moveto
0 -5 rlineto 5 0 rlineto 0 5 rlineto closepath
fill
92 83 moveto
0 -5 rlineto 5 0 rlineto 0 5 rlineto closepath
fill
97 83 moveto
0 -5 rlineto 5 0 rlineto 0 5 rlineto closepath
fill
102 83 moveto
0 -5 rlineto 5 0 rlineto 0 5 rlineto closepath
fill
112 83 moveto
0 -5 rlineto 5 0 rlineto 0 5 rlineto closepath
fill
117 83 moveto
0 -5 rlineto 5 0 rlineto 0 5 rlineto closepath
fill
122 83 moveto
0 -5 rlineto 5 0 rlineto 0 5 rlineto closepath
fill
137 83 moveto
0 -5 rlineto 5 0 rlineto 0 5 rlineto closepath
fill
142 83 moveto
0 -5 rlineto 5 0 rlineto 0 5 rlineto closepath
fill
147 83 moveto
0 -5 rlineto 5 0 rlineto 0 5 rlineto closepath
fill
152 83 moveto
0 -5 rlineto 5 0 rlineto 0 5 rlineto closepath
fill
172 83 moveto
0 -5 rlineto 5 0 rlineto 0 5 rlineto closepath
fill
177 83 moveto
0 -5 rlineto 5 0 rlineto 0 5 rlineto closepath
fill
27 78 moveto
0 -5 rlineto 5 0 rlineto 0 5 rlineto closepath
fill
32 78 moveto
0 -5 rlineto 5 0 rlineto 0 5 rlineto closepath
fill
37 78 moveto
0 -5 rlineto 5 0 rlineto 0 5 rlineto closepath
fill
57 78 moveto
0 -5 rlineto 5 0 rlineto 0 5 rlineto closepath
fill
67 78 moveto
0 -5 rlineto 5 0 rlineto 0 5 rlineto closepath
fill
72 78 moveto
0 -5 rlineto 5 0 rlineto 0 5 rlineto closepath
fill
87 78 moveto
0 -5 rlineto 5 0 rlineto 0 5 rlineto closepath
fill
97 78 moveto
0 -5 rlineto 5 0 rlineto 0 5 rlineto closepath
fill
117 78 moveto
0 -5 rlineto 5 0 rlineto 0 5 rlineto closepath
fill
122 78 moveto
0 -5 rlineto 5 0 rlineto 0 5 rlineto closepath
fill
137 78 moveto
0 -5 rlineto 5 0 rlineto 0 5 rlineto closepath
fill
142 78 moveto
0 -5 rlineto 5 0 rlineto 0 5 rlineto closepath
fill
147 78 moveto
0 -5 rlineto 5 0 rlineto 0 5 rlineto closepath
fill
167 78 moveto
0 -5 rlineto 5 0 rlineto 0 5 rlineto closepath
fill
177 78 moveto
0 -5 rlineto 5 0 rlineto 0 5 rlineto closepath
fill
17 73 moveto
0 -5 rlineto 5 0 rlineto 0 5 rlineto closepath
fill
32 73 moveto
0 -5 rlineto 5 0 rlineto 0 5 rlineto closepath
fill
37 73 moveto
0 -5 rlineto 5 0 rlineto 0 5 rlineto closepath
fill
42 73 moveto
0 -5 rlineto 5 0 rlineto 0 5 rlineto closepath
fill
47 73 moveto
0 -5 rlineto 5 0 rlineto 0 5 rlineto closepath
fill
57 73 moveto
0 -5 rlineto 5 0 rlineto 0 5 rlineto closepath
fill
62 73 moveto
0 -5 rlineto 5 0 rlineto 0 5 rlineto closepath
fill
82 73 moveto
0 -5 rlineto 5 0 rlineto 0 5 rlineto closepath
fill
97 73 moveto
0 -5 rlineto 5 0 rlineto 0 5 rlineto closepath
fill
107 73 moveto
0 -5 rlineto 5 0 rlineto 0 5 rlineto closepath
fill
127 73 moveto
0 -5 rlineto 5 0 rlineto 0 5 rlineto closepath
fill
137 73 moveto
0 -5 rlineto 5 0 rlineto 0 5 rlineto closepath
fill
147 73 moveto
0 -5 rlineto 5 0 rlineto 0 5 rlineto closepath
fill
162 73 moveto
0 -5 rlineto 5 0 rlineto 0 5 rlineto closepath
fill
172 73 moveto
0 -5 rlineto 5 0 rlineto 0 5 rlineto closepath
fill
177 73 moveto
0 -5 rlineto 5 0 rlineto 0 5 rlineto closepath
fill
22 68 moveto
0 -5 rlineto 5 0 rlineto 0 5 rlineto closepath
fill
37 68 moveto
0 -5 rlineto 5 0 rlineto 0 5 rlineto closepath
fill
42 68 moveto
0 -5 rlineto 5 0 rlineto 0 5 rlineto closepath
fill
52 68 moveto
0 -5 rlineto 5 0 rlineto 0 5 rlineto closepath
fill
67 68 moveto
0 -5 rlineto 5 0 rlineto 0 5 rlineto closepath
fill
72 68 moveto
0 -5 rlineto 5 0 rlineto 0 5 rlineto closepath
fill
92 68 moveto
0 -5 rlineto 5 0 rlineto 0 5 rlineto closepath
fill
97 68 moveto
0 -5 rlineto 5 0 rlineto 0 5 rlineto closepath
fill
102 68 moveto
0 -5 rlineto 5 0 rlineto 0 5 rlineto closepath
fill
107 68 moveto
0 -5 rlineto 5 0 rlineto 0 5 rlineto closepath
fill
122 68 moveto
0 -5 rlineto 5 0 rlineto 0 5 rlineto closepath
fill
127 68 moveto
0 -5 rlineto 5 0 rlineto 0 5 rlineto closepath
fill
137 68 moveto
0 -5 rlineto 5 0 rlineto 0 5 rlineto closepath
fill
147 68 moveto
0 -5 rlineto 5 0 rlineto 0 5 rlineto closepath
fill
157 68 moveto
0 -5 rlineto 5 0 rlineto 0 5 rlineto closepath
fill
172 68 moveto
0 -5 rlineto 5 0 rlineto 0 5 rlineto closepath
fill
17 63 moveto
0 -5 rlineto 5 0 rlineto 0 5 rlineto closepath
fill
27 63 moveto
0 -5 rlineto 5 0 rlineto 0 5 rlineto closepath
fill
32 63 moveto
0 -5 rlineto 5 0 rlineto 0 5 rlineto closepath
fill
47 63 moveto
0 -5 rlineto 5 0 rlineto 0 5 rlineto closepath
fill
62 63 moveto
0 -5 rlineto 5 0 rlineto 0 5 rlineto closepath
fill
67 63 moveto
0 -5 rlineto 5 0 rlineto 0 5 rlineto closepath
fill
77 63 moveto
0 -5 rlineto 5 0 rlineto 0 5 rlineto closepath
fill
102 63 moveto
0 -5 rlineto 5 0 rlineto 0 5 rlineto closepath
fill
117 63 moveto
0 -5 rlineto 5 0 rlineto 0 5 rlineto closepath
fill
122 63 moveto
0 -5 rlineto 5 0 rlineto 0 5 rlineto closepath
fill
137 63 moveto
0 -5 rlineto 5 0 rlineto 0 5 rlineto closepath
fill
142 63 moveto
0 -5 rlineto 5 0 rlineto 0 5 rlineto closepath
fill
147 63 moveto
0 -5 rlineto 5 0 rlineto 0 5 rlineto closepath
fill
152 63 moveto
0 -5 rlineto 5 0 rlineto 0 5 rlineto closepath
fill
157 63 moveto
0 -5 rlineto 5 0 rlineto 0 5 rlineto closepath
fill
162 63 moveto
0 -5 rlineto 5 0 rlineto 0 5 rlineto closepath
fill
57 58 moveto
0 -5 rlineto 5 0 rlineto 0 5 rlineto closepath
fill
67 58 moveto
0 -5 rlineto 5 0 rlineto 0 5 rlineto closepath
fill
72 58 moveto
0 -5 rlineto 5 0 rlineto 0 5 rlineto closepath
fill
77 58 moveto
0 -5 rlineto 5 0 rlineto 0 5 rlineto closepath
fill
82 58 moveto
0 -5 rlineto 5 0 rlineto 0 5 rlineto closepath
fill
97 58 moveto
0 -5 rlineto 5 0 rlineto 0 5 rlineto closepath
fill
102 58 moveto
0 -5 rlineto 5 0 rlineto 0 5 rlineto closepath
fill
107 58 moveto
0 -5 rlineto 5 0 rlineto 0 5 rlineto closepath
fill
117 58 moveto
0 -5 rlineto 5 0 rlineto 0 5 rlineto closepath
fill
122 58 moveto
0 -5 rlineto 5 0 rlineto 0 5 rlineto closepath
fill
137 58 moveto
0 -5 rlineto 5 0 rlineto 0 5 rlineto closepath
fill
157 58 moveto
0 -5 rlineto 5 0 rlineto 0 5 rlineto closepath
fill
172 58 moveto
0 -5 rlineto 5 0 rlineto 0 5 rlineto closepath
fill
177 58 moveto
0 -5 rlineto 5 0 rlineto 0 5 rlineto closepath
fill
17 53 moveto
0 -5 rlineto 5 0 rlineto 0 5 rlineto closepath
fill
22 53 moveto
0 -5 rlineto 5 0 rlineto 0 5 rlineto closepath
fill
27 53 moveto
0 -5 rlineto 5 0 rlineto 0 5 rlineto closepath
fill
32 53 moveto
0 -5 rlineto 5 0 rlineto 0 5 rlineto closepath
fill
37 53 moveto
0 -5 rlineto 5 0 rlineto 0 5 rlineto closepath
fill
42 53 moveto
0 -5 rlineto 5 0 rlineto 0 5 rlineto closepath
fill
47 53 moveto
0 -5 rlineto 5 0 rlineto 0 5 rlineto closepath
fill
57 53 moveto
0 -5 rlineto 5 0 rlineto 0 5 rlineto closepath
fill
72 53 moveto
0 -5 rlineto 5 0 rlineto 0 5 rlineto closepath
fill
77 53 moveto
0 -5 rlineto 5 0 rlineto 0 5 rlineto closepath
fill
87 53 moveto
0 -5 rlineto 5 0 rlineto 0 5 rlineto closepath
fill
97 53 moveto
0 -5 rlineto 5 0 rlineto 0 5 rlineto closepath
fill
102 53 moveto
0 -5 rlineto 5 0 rlineto 0 5 rlineto closepath
fill
107 53 moveto
0 -5 rlineto 5 0 rlineto 0 5 rlineto closepath
fill
122 53 moveto
0 -5 rlineto 5 0 rlineto 0 5 rlineto closepath
fill
127 53 moveto
0 -5 rlineto 5 0 rlineto 0 5 rlineto closepath
fill
132 53 moveto
0 -5 rlineto 5 0 rlineto 0 5 rlineto closepath
fill
137 53 moveto
0 -5 rlineto 5 0 rlineto 0 5 rlineto closepath
fill
147 53 moveto
0 -5 rlineto 5 0 rlineto 0 5 rlineto closepath
fill
157 53 moveto
0 -5 rlineto 5 0 rlineto 0 5 rlineto closepath
fill
162 53 moveto
0 -5 rlineto 5 0 rlineto 0 5 rlineto closepath
fill
172 53 moveto
0 -5 rlineto 5 0 rlineto 0 5 rlineto closepath
fill
177 53 moveto
0 -5 rlineto 5 0 rlineto 0 5 rlineto closepath
fill
17 48 moveto
0 -5 rlineto 5 0 rlineto 0 5 rlineto closepath
fill
47 48 moveto
0 -5 rlineto 5 0 rlineto 0 5 rlineto closepath
fill
57 48 moveto
0 -5 rlineto 5 0 rlineto 0 5 rlineto closepath
fill
67 48 moveto
0 -5 rlineto 5 0 rlineto 0 5 rlineto closepath
fill
77 48 moveto
0 -5 rlineto 5 0 rlineto 0 5 rlineto closepath
fill
82 48 moveto
0 -5 rlineto 5 0 rlineto 0 5 rlineto closepath
fill
87 48 moveto
0 -5 rlineto 5 0 rlineto 0 5 rlineto closepath
fill
92 48 moveto
0 -5 rlineto 5 0 rlineto 0 5 rlineto closepath
fill
102 48 moveto
0 -5 rlineto 5 0 rlineto 0 5 rlineto closepath
fill
112 48 moveto
0 -5 rlineto 5 0 rlineto 0 5 rlineto closepath
fill
122 48 moveto
0 -5 rlineto 5 0 rlineto 0 5 rlineto closepath
fill
127 48 moveto
0 -5 rlineto 5 0 rlineto 0 5 rlineto closepath
fill
137 48 moveto
0 -5 rlineto 5 0 rlineto 0 5 rlineto closepath
fill
157 48 moveto
0 -5 rlineto 5 0 rlineto 0 5 rlineto closepath
fill
172 48 moveto
0 -5 rlineto 5 0 rlineto 0 5 rlineto closepath
fill
17 43 moveto
0 -5 rlineto 5 0 rlineto 0 5 rlineto closepath
fill
27 43 moveto
0 -5 rlineto 5 0 rlineto 0 5 rlineto closepath
fill
32 43 moveto
0 -5 rlineto 5 0 rlineto 0 5 rlineto closepath
fill
37 43 moveto
0 -5 rlineto 5 0 rlineto 0 5 rlineto closepath
fill
47 43 moveto
0 -5 rlineto 5 0 rlineto 0 5 rlineto closepath
fill
57 43 moveto
0 -5 rlineto 5 0 rlineto 0 5 rlineto closepath
fill
62 43 moveto
0 -5 rlineto 5 0 rlineto 0 5 rlineto closepath
fill
67 43 moveto
0 -5 rlineto 5 0 rlineto 0 5 rlineto closepath
fill
72 43 moveto
0 -5 rlineto 5 0 rlineto 0 5 rlineto closepath
fill
87 43 moveto
0 -5 rlineto 5 0 rlineto 0 5 rlineto closepath
fill
92 43 moveto
0 -5 rlineto 5 0 rlineto 0 5 rlineto closepath
fill
97 43 moveto
0 -5 rlineto 5 0 rlineto 0 5 rlineto closepath
fill
102 43 moveto
0 -5 rlineto 5 0 rlineto 0 5 rlineto closepath
fill
117 43 moveto
0 -5 rlineto 5 0 rlineto 0 5 rlineto closepath
fill
122 43 moveto
0 -5 rlineto 5 0 rlineto 0 5 rlineto closepath
fill
137 43 moveto
0 -5 rlineto 5 0 rlineto 0 5 rlineto closepath
fill
142 43 moveto
0 -5 rlineto 5 0 rlineto 0 5 rlineto closepath
fill
147 43 moveto
0 -5 rlineto 5 0 rlineto 0 5 rlineto closepath
fill
152 43 moveto
0 -5 rlineto 5 0 rlineto 0 5 rlineto closepath
fill
157 43 moveto
0 -5 rlineto 5 0 rlineto 0 5 rlineto closepath
fill
162 43 moveto
0 -5 rlineto 5 0 rlineto 0 5 rlineto closepath
fill
17 38 moveto
0 -5 rlineto 5 0 rlineto 0 5 rlineto closepath
fill
27 38 moveto
0 -5 rlineto 5 0 rlineto 0 5 rlineto closepath
fill
32 38 moveto
0 -5 rlineto 5 0 rlineto 0 5 rlineto closepath
fill
37 38 moveto
0 -5 rlineto 5 0 rlineto 0 5 rlineto closepath
fill
47 38 moveto
0 -5 rlineto 5 0 rlineto 0 5 rlineto closepath
fill
62 38 moveto
0 -5 rlineto 5 0 rlineto 0 5 rlineto closepath
fill
67 38 moveto
0 -5 rlineto 5 0 rlineto 0 5 rlineto closepath
fill
72 38 moveto
0 -5 rlineto 5 0 rlineto 0 5 rlineto closepath
fill
87 38 moveto
0 -5 rlineto 5 0 rlineto 0 5 rlineto closepath
fill
97 38 moveto
0 -5 rlineto 5 0 rlineto 0 5 rlineto closepath
fill
102 38 moveto
0 -5 rlineto 5 0 rlineto 0 5 rlineto closepath
fill
117 38 moveto
0 -5 rlineto 5 0 rlineto 0 5 rlineto closepath
fill
122 38 moveto
0 -5 rlineto 5 0 rlineto 0 5 rlineto closepath
fill
132 38 moveto
0 -5 rlineto 5 0 rlineto 0 5 rlineto closepath
fill
137 38 moveto
0 -5 rlineto 5 0 rlineto 0 5 rlineto closepath
fill
152 38 moveto
0 -5 rlineto 5 0 rlineto 0 5 rlineto closepath
fill
157 38 moveto
0 -5 rlineto 5 0 rlineto 0 5 rlineto closepath
fill
177 38 moveto
0 -5 rlineto 5 0 rlineto 0 5 rlineto closepath
fill
17 33 moveto
0 -5 rlineto 5 0 rlineto 0 5 rlineto closepath
fill
27 33 moveto
0 -5 rlineto 5 0 rlineto 0 5 rlineto closepath
fill
32 33 moveto
0 -5 rlineto 5 0 rlineto 0 5 rlineto closepath
fill
37 33 moveto
0 -5 rlineto 5 0 rlineto 0 5 rlineto closepath
fill
47 33 moveto
0 -5 rlineto 5 0 rlineto 0 5 rlineto closepath
fill
57 33 moveto
0 -5 rlineto 5 0 rlineto 0 5 rlineto closepath
fill
62 33 moveto
0 -5 rlineto 5 0 rlineto 0 5 rlineto closepath
fill
82 33 moveto
0 -5 rlineto 5 0 rlineto 0 5 rlineto closepath
fill
97 33 moveto
0 -5 rlineto 5 0 rlineto 0 5 rlineto closepath
fill
127 33 moveto
0 -5 rlineto 5 0 rlineto 0 5 rlineto closepath
fill
132 33 moveto
0 -5 rlineto 5 0 rlineto 0 5 rlineto closepath
fill
157 33 moveto
0 -5 rlineto 5 0 rlineto 0 5 rlineto closepath
fill
162 33 moveto
0 -5 rlineto 5 0 rlineto 0 5 rlineto closepath
fill
177 33 moveto
0 -5 rlineto 5 0 rlineto 0 5 rlineto closepath
fill
17 28 moveto
0 -5 rlineto 5 0 rlineto 0 5 rlineto closepath
fill
47 28 moveto
0 -5 rlineto 5 0 rlineto 0 5 rlineto closepath
fill
57 28 moveto
0 -5 rlineto 5 0 rlineto 0 5 rlineto closepath
fill
67 28 moveto
0 -5 rlineto 5 0 rlineto 0 5 rlineto closepath
fill
72 28 moveto
0 -5 rlineto 5 0 rlineto 0 5 rlineto closepath
fill
97 28 moveto
0 -5 rlineto 5 0 rlineto 0 5 rlineto closepath
fill
102 28 moveto
0 -5 rlineto 5 0 rlineto 0 5 rlineto closepath
fill
112 28 moveto
0 -5 rlineto 5 0 rlineto 0 5 rlineto closepath
fill
117 28 moveto
0 -5 rlineto 5 0 rlineto 0 5 rlineto closepath
fill
122 28 moveto
0 -5 rlineto 5 0 rlineto 0 5 rlineto closepath
fill
127 28 moveto
0 -5 rlineto 5 0 rlineto 0 5 rlineto closepath
fill
132 28 moveto
0 -5 rlineto 5 0 rlineto 0 5 rlineto closepath
fill
137 28 moveto
0 -5 rlineto 5 0 rlineto 0 5 rlineto closepath
fill
142 28 moveto
0 -5 rlineto 5 0 rlineto 0 5 rlineto closepath
fill
147 28 moveto
0 -5 rlineto 5 0 rlineto 0 5 rlineto closepath
fill
157 28 moveto
0 -5 rlineto 5 0 rlineto 0 5 rlineto closepath
fill
172 28 moveto
0 -5 rlineto 5 0 rlineto 0 5 rlineto closepath
fill
17 23 moveto
0 -5 rlineto 5 0 rlineto 0 5 rlineto closepath
fill
22 23 moveto
0 -5 rlineto 5 0 rlineto 0 5 rlineto closepath
fill
27 23 moveto
0 -5 rlineto 5 0 rlineto 0 5 rlineto closepath
fill
32 23 moveto
0 -5 rlineto 5 0 rlineto 0 5 rlineto closepath
fill
37 23 moveto
0 -5 rlineto 5 0 rlineto 0 5 rlineto closepath
fill
42 23 moveto
0 -5 rlineto 5 0 rlineto 0 5 rlineto closepath
fill
47 23 moveto
0 -5 rlineto 5 0 rlineto 0 5 rlineto closepath
fill
57 23 moveto
0 -5 rlineto 5 0 rlineto 0 5 rlineto closepath
fill
62 23 moveto
0 -5 rlineto 5 0 rlineto 0 5 rlineto closepath
fill
67 23 moveto
0 -5 rlineto 5 0 rlineto 0 5 rlineto closepath
fill
77 23 moveto
0 -5 rlineto 5 0 rlineto 0 5 rlineto closepath
fill
92 23 moveto
0 -5 rlineto 5 0 rlineto 0 5 rlineto closepath
fill
97 23 moveto
0 -5 rlineto 5 0 rlineto 0 5 rlineto closepath
fill
102 23 moveto
0 -5 rlineto 5 0 rlineto 0 5 rlineto closepath
fill
107 23 moveto
0 -5 rlineto 5 0 rlineto 0 5 rlineto closepath
fill
112 23 moveto
0 -5 rlineto 5 0 rlineto 0 5 rlineto closepath
fill
117 23 moveto
0 -5 rlineto 5 0 rlineto 0 5 rlineto closepath
fill
122 23 moveto
0 -5 rlineto 5 0 rlineto 0 5 rlineto closepath
fill
132 23 moveto
0 -5 rlineto 5 0 rlineto 0 5 rlineto closepath
fill
137 23 moveto
0 -5 rlineto 5 0 rlineto 0 5 rlineto closepath
fill
142 23 moveto
0 -5 rlineto 5 0 rlineto 0 5 rlineto closepath
fill
147 23 moveto
0 -5 rlineto 5 0 rlineto 0 5 rlineto closepath
fill
152 23 moveto
0 -5 rlineto 5 0 rlineto 0 5 rlineto closepath
fill
157 23 moveto
0 -5 rlineto 5 0 rlineto 0 5 rlineto closepath
fill
162 23 moveto
0 -5 rlineto 5 0 rlineto 0 5 rlineto closepath
fill
172 23 moveto
0 -5 rlineto 5 0 rlineto 0 5 rlineto closepath
fill
177 23 moveto
0 -5 rlineto 5 0 rlineto 0 5 rlineto closepath
fill